<svg width="22" height="22" viewBox="0 0 22 22" fill="none" xmlns="http://www.w3.org/2000/svg">
<path d="M18.0206 17.5571L4.90696 4.4435" stroke="#2B2B89" stroke-linecap="round"/>
<path d="M18.0203 4.4435L4.90667 17.5571" stroke="#2B2B89" stroke-linecap="round"/>
</svg>
